…
Note that we had to use `==` instead of just `=`. This is because `=` would set the entire variable region equal to 2 instead of just checking to see which countries were in region 2.

We can use filter to choose any kind of subset in our data. For instance, we could look at the happiest countries:

``` r
happy2 %>%
  filter(Happiness > 7)
```

    ## # A tibble: 21 x 3
    ##    Country   Region Happiness
    ##    <chr>      <dbl>     <dbl>
    ##  1 Australia      2       7.9
    ##  2 Austria        2       7.8
    ##  3 Belgium        2       7.6
    ##  4 Canada         2       8  
    ##  5 Cyprus         2       7.2
    ##  6 Denmark        2       8.1
    ##  7 Finland        2       8  
    ##  8 France         2       7.1
    ##  9 Germany        2       7.2
    ## 10 Iceland        2       7.8
    ## # … with 11 more rows
…
